full_subtractor/full_subtractor.vcd
$date
	Thu Jun  4 08:47:29 2026
$end
$version
	Icarus Verilog
$end
$timescale
	1s
$end
$scope module full_subtractor_tb $end
$var wire 1 ! d $end
$var wire 1 " bout $end
$var reg 1 # a $end
$var reg 1 $ b $end
$var reg 1 % bin $end
$scope module uut $end
$var wire 1 # a $end
$var wire 1 $ b $end
$var wire 1 % bin $end
$var wire 1 " bout $end
$var wire 1 ! d $end
$var wire 1 & w1 $end
$var wire 1 ' w2 $end
$var wire 1 ( w3 $end
$var wire 1 ) w4 $end
$var wire 1 * w5 $end
$upscope $end
$upscope $end
$enddefinitions $end
$comment Show the parameter values. $end
$dumpall
$end
#0
$dumpvars
0*
0)
1(
1'
0&
0%
0$
0#
0"
0!
$end
#10
1"
1!
1*
1%
#20
0(
0*
1&
1)
0%
1$
#30
0!
1%
#40
0"
1!
0)
0'
0%
0$
1#
#50
0!
1%
#60
1(
0&
0%
1$
#70
1"
1!
1*
1%
